<?xml version="1.0" encoding="utf-8"?>
<!-- Generator: Adobe Illustrator 22.1.0, SVG Export Plug-In . SVG Version: 6.00 Build 0)  -->
<svg version="1.1" id="Calque_1" xmlns="http://www.w3.org/2000/svg" xmlns:xlink="http://www.w3.org/1999/xlink" x="0px" y="0px"
	 viewBox="0 0 950 535" style="enable-background:new 0 0 950 535;" xml:space="preserve">
<style type="text/css">
	.st20{opacity:0.95;fill:#171717;}
	.st21{fill:#C6C6C6;}
</style>
<g id="awpLeftArrow">
<circle class="st20" cx="47.8" cy="276.1" r="28"/>
<path class="st21" id="" d="M53.7,270.2v-9c0-3.2-2.7-5.9-5.9-5.9c-1.6,0-3.1,0.7-4.1,1.7l0,0l-15,15l0,0c-1,1.1-1.7,2.5-1.7,4.1
	c0,1.6,0.6,3,1.7,4.1l0,0l15,15l0,0c1.1,1.1,2.5,1.7,4.2,1.7c3.2,0,5.9-2.7,5.9-5.9l0-9l9,0c3.2,0,5.9-2.7,5.9-5.9
	c0-3.2-2.7-5.9-5.9-5.9L53.7,270.2z"/>
</g>
<g id="awpRightArrow">
	<circle class="st20" cx="900.3" cy="276.1" r="28"/>
<path class="st21" d="M894.4,270.2v-9c0-3.2,2.7-5.9,5.9-5.9c1.6,0,3.1,0.7,4.1,1.7l0,0l15,15l0,0c1,1.1,1.7,2.5,1.7,4.1
	c0,1.6-0.6,3-1.7,4.1l0,0l-15,15l0,0c-1.1,1.1-2.5,1.7-4.2,1.7c-3.2,0-5.9-2.7-5.9-5.9v-9l-9,0c-3.2,0-5.9-2.7-5.9-5.9
	c0-3.2,2.7-5.9,5.9-5.9L894.4,270.2z"/>
</g>
</svg>
